<?xml version="1.0" encoding="UTF-8"?>
<Project>
   <description></description>
   <name>daily-task</name>
   <tag></tag>
   <UUID>c334d3bb-a855-4b8d-9d9d-af3e8297e2a2</UUID>
   <migratedVersion>5.9.0</migratedVersion>
   <pageLoadTimeout>0</pageLoadTimeout>
   <sourceContent>
      <sourceFolderList>
         <sourceFolderConfiguration>
            <url>Include/scripts/groovy</url>
         </sourceFolderConfiguration>
      </sourceFolderList>
      <systemFolderList>
         <systemFolderConfiguration>
            <url>Include/scripts/groovy</url>
         </systemFolderConfiguration>
         <systemFolderConfiguration>
            <url>Include/features</url>
         </systemFolderConfiguration>
         <systemFolderConfiguration>
            <url>Include/config</url>
         </systemFolderConfiguration>
      </systemFolderList>
   </sourceContent>
   <timeStampInProperties>false</timeStampInProperties>
   <type>GENERIC</type>
</Project>
